%YAML 1.1
%TAG !u! tag:unity3d.com,2011:
--- !u!1045 &1
EditorBuildSettings:
  m_ObjectHideFlags: 0
  serializedVersion: 2
  m_Scenes:
  - enabled: 1
    path: Assets/Scenes/Menu.unity
    guid: de77bab68e710aa4ebc1eb47305d35b1
  - enabled: 1
    path: Assets/Scenes/DoodleCube.unity
    guid: 2e8f22a5e1bb1884fb9118ffbe38c9ed
